ps1
…
filter(mpg, cyl == 8)

## # A tibble: 70 x 11
##    manufa~ model    displ  year   cyl trans  drv     cty   hwy fl    class
##    <chr>   <chr>    <dbl> <int> <int> <chr>  <chr> <int> <int> <chr> <chr>
##  1 audi    a6 quat~  4.20  2008     8 auto(~ 4        16    23 p     mids~
##  2 chevro~ c1500 s~  5.30  2008     8 auto(~ r        14    20 r     suv  
##  3 chevro~ c1500 s~  5.30  2008     8 auto(~ r        11    15 e     suv  
##  4 chevro~ c1500 s~  5.30  2008     8 auto(~ r        14    20 r     suv  
##  5 chevro~ c1500 s~  5.70  1999     8 auto(~ r        13    17 r     suv  
##  6 chevro~ c1500 s~  6.00  2008     8 auto(~ r        12    17 r     suv  
##  7 chevro~ corvette  5.70  1999     8 manua~ r        16    26 p     2sea~
##  8 chevro~ corvette  5.70  1999     8 auto(~ r        15    23 p     2sea~
##  9 chevro~ corvette  6.20  2008     8 manua~ r        16    26 p     2sea~
## 10 chevro~ corvette  6.20  2008     8 auto(~ r        15    25 p     2sea~
## # ... with 60 more rows

filter(diamonds, carat > 3)

## # A tibble: 32 x 10
##    carat cut     color clarity depth table price     x     y     z
##    <dbl> <ord>   <ord> <ord>   <dbl> <dbl> <int> <dbl> <dbl> <dbl>
##  1  3.01 Premium I     I1       62.7  58.0  8040  9.10  8.97  5.67
##  2  3.11 Fair    J     I1       65.9  57.0  9823  9.15  9.02  5.98
##  3  3.01 Premium F     I1       62.2  56.0  9925  9.24  9.13  5.73
##  4  3.05 Premium E     I1       60.9  58.0 10453  9.26  9.25  5.66
##  5  3.02 Fair    I     I1       65.2  56.0 10577  9.11  9.02  5.91
##  6  3.01 Fair    H     I1       56.1  62.0 10761  9.54  9.38  5.31
##  7  3.65 Fair    H     I1       67.1  53.0 11668  9.53  9.48  6.38
##  8  3.24 Premium H     I1       62.1  58.0 12300  9.44  9.40  5.85
##  9  3.22 Ideal   I     I1       62.6  55.0 12545  9.49  9.42  5.92
## 10  3.50 Ideal   H     I1       62.8  57.0 12587  9.65  9.59  6.03
## # ... with 22 more rows

Press Alt + Shift + K. What happens? How can you get to the same place using the menus? keyboard shortcut quick reference Tools - keyboard shortcut help

1.7 1.6 - 5.2.4

Using the nycflights13 library, find all flights that

Had an arrival delay of two or more hours

library(nycflights13)
nycflights <- nycflights13::flights
filter(nycflights, arr_delay >= 120)

## # A tibble: 10,200 x 19
##     year month   day dep_~ sche~ dep_~ arr_~ sche~ arr_~ carr~ flig~ tail~
##    <int> <int> <int> <int> <int> <dbl> <int> <int> <dbl> <chr> <int> <chr>
##  1  2013     1     1   811   630 101    1047   830   137 MQ     4576 N531~
##  2  2013     1     1   848  1835 853    1001  1950   851 MQ     3944 N942~
##  3  2013     1     1   957   733 144    1056   853   123 UA      856 N534~
##  4  2013     1     1  1114   900 134    1447  1222   145 UA     1086 N765~
##  5  2013     1     1  1505  1310 115    1638  1431   127 EV     4497 N179~
##  6  2013     1     1  1525  1340 105    1831  1626   125 B6      525 N231~
##  7  2013     1     1  1549  1445  64.0  1912  1656   136 EV     4181 N211~
##  8  2013     1     1  1558  1359 119    1718  1515   123 EV     5712 N826~
##  9  2013     1     1  1732  1630  62.0  2028  1825   123 EV     4092 N169~
## 10  2013     1     1  1803  1620 103    2008  1750   138 MQ     4622 N504~
## # ... with 10,190 more rows, and 7 more variables: origin <chr>,
## #   dest <chr>, air_time <dbl>, distance <dbl>, hour <dbl>, minute <dbl>,
## #   time_hour <dttm>

Flew to Houston (IAH or HOU)

filter(nycflights, dest == "IAH" | dest =="HOU")

## # A tibble: 9,313 x 19
##     year month   day dep_t~ sched~ dep_de~ arr_~ sche~ arr_de~ carr~ flig~
##    <int> <int> <int>  <int>  <int>   <dbl> <int> <int>   <dbl> <chr> <int>
##  1  2013     1     1    517    515    2.00   830   819   11.0  UA     1545
##  2  2013     1     1    533    529    4.00   850   830   20.0  UA     1714
##  3  2013     1     1    623    627 -  4.00   933   932    1.00 UA      496
##  4  2013     1     1    728    732 -  4.00  1041  1038    3.00 UA      473
##  5  2013     1     1    739    739    0     1104  1038   26.0  UA     1479
##  6  2013     1     1    908    908    0     1228  1219    9.00 UA     1220
##  7  2013     1     1   1028   1026    2.00  1350  1339   11.0  UA     1004
##  8  2013     1     1   1044   1045 -  1.00  1352  1351    1.00 UA      455
##  9  2013     1     1   1114    900  134     1447  1222  145    UA     1086
## 10  2013     1     1   1205   1200    5.00  1503  1505 -  2.00 UA     1461
## # ... with 9,303 more rows, and 8 more variables: tailnum <chr>,
## #   origin <chr>, dest <chr>, air_time <dbl>, distance <dbl>, hour <dbl>,
## #   minute <dbl>, time_hour <dttm>

Were operated by United, American, or Delta

filter(nycflights, carrier == "UA" | carrier =="AA" | carrier =="DL")

## # A tibble: 139,504 x 19
##     year month   day dep_t~ sched_~ dep_d~ arr_~ sched~ arr_d~ carr~ flig~
##    <int> <int> <int>  <int>   <int>  <dbl> <int>  <int>  <dbl> <chr> <int>
##  1  2013     1     1    517     515   2.00   830    819  11.0  UA     1545
##  2  2013     1     1    533     529   4.00   850    830  20.0  UA     1714
##  3  2013     1     1    542     540   2.00   923    850  33.0  AA     1141
##  4  2013     1     1    554     600  -6.00   812    837 -25.0  DL      461
##  5  2013     1     1    554     558  -4.00   740    728  12.0  UA     1696
##  6  2013     1     1    558     600  -2.00   753    745   8.00 AA      301
##  7  2013     1     1    558     600  -2.00   924    917   7.00 UA      194
##  8  2013     1     1    558     600  -2.00   923    937 -14.0  UA     1124
##  9  2013     1     1    559     600  -1.00   941    910  31.0  AA      707
## 10  2013     1     1    559     600  -1.00   854    902 - 8.00 UA     1187
## # ... with 139,494 more rows, and 8 more variables: tailnum <chr>,
## #   origin <chr>, dest <chr>, air_time <dbl>, distance <dbl>, hour <dbl>,
## #   minute <dbl>, time_hour <dttm>

Departed in summer (July, August, and September)

filter(nycflights, month == 7 | month == 8 | month == 9)

## # A tibble: 86,326 x 19
##     year month   day dep_t~ sched_~ dep_de~ arr_~ sched~ arr_~ carr~ flig~
##    <int> <int> <int>  <int>   <int>   <dbl> <int>  <int> <dbl> <chr> <int>
##  1  2013     7     1      1    2029  212      236   2359   157 B6      915
##  2  2013     7     1      2    2359    3.00   344    344     0 B6     1503
##  3  2013     7     1     29    2245  104      151      1   110 B6      234
##  4  2013     7     1     43    2130  193      322     14   188 B6     1371
##  5  2013     7     1     44    2150  174      300    100   120 AA      185
##  6  2013     7     1     46    2051  235      304   2358   186 B6      165
##  7  2013     7     1     48    2001  287      308   2305   243 VX      415
##  8  2013     7     1     58    2155  183      335     43   172 B6      425
##  9  2013     7     1    100    2146  194      327     30   177 B6     1183
## 10  2013     7     1    100    2245  135      337    135   122 B6      623
## # ... with 86,316 more rows, and 8 more variables: tailnum <chr>,
## #   origin <chr>, dest <chr>, air_time <dbl>, distance <dbl>, hour <dbl>,
## #   minute <dbl>, time_hour <dttm>

Arrived more than two hours late, but didnt leave late

filter(nycflights, dep_delay <= 0 & arr_delay > 120)

## # A tibble: 29 x 19
##     year month   day dep_~ sche~ dep_~ arr_~ sche~ arr_~ carr~ flig~ tail~
##    <int> <int> <int> <int> <int> <dbl> <int> <int> <dbl> <chr> <int> <chr>
##  1  2013     1    27  1419  1420 -1.00  1754  1550   124 MQ     3728 N1EA~
##  2  2013    10     7  1350  1350  0     1736  1526   130 EV     5181 N611~
##  3  2013    10     7  1357  1359 -2.00  1858  1654   124 AA     1151 N3CM~
##  4  2013    10    16   657   700 -3.00  1258  1056   122 B6        3 N703~
##  5  2013    11     1   658   700 -2.00  1329  1015   194 VX      399 N629~
##  6  2013     3    18  1844  1847 -3.00    39  2219   140 UA      389 N560~
##  7  2013     4    17  1635  1640 -5.00  2049  1845   124 MQ     4540 N721~
##  8  2013     4    18   558   600 -2.00  1149   850   179 AA      707 N3EX~
##  9  2013     4    18   655   700 -5.00  1213   950   143 AA     2083 N565~
## 10  2013     5    22  1827  1830 -3.00  2217  2010   127 MQ     4674 N518~
## # ... with 19 more rows, and 7 more variables: origin <chr>, dest <chr>,
## #   air_time <dbl>, distance <dbl>, hour <dbl>, minute <dbl>,
## #   time_hour <dttm>

Were delayed by at least an hour, but made up over 30 minutes in flight

filter(nycflights, dep_delay >= 60 & arr_delay < dep_delay - 30)

## # A tibble: 1,844 x 19
##     year month   day dep_t~ sched_~ dep_d~ arr_~ sched~ arr_d~ carr~ flig~
##    <int> <int> <int>  <int>   <int>  <dbl> <int>  <int>  <dbl> <chr> <int>
##  1  2013     1     1   2205    1720  285      46   2040 246    AA     1999
##  2  2013     1     1   2326    2130  116     131     18  73.0  B6      199
##  3  2013     1     3   1503    1221  162    1803   1555 128    UA      551
##  4  2013     1     3   1839    1700   99.0  2056   1950  66.0  AA      575
##  5  2013     1     3   1850    1745   65.0  2148   2120  28.0  AA      177
##  6  2013     1     3   1941    1759  102    2246   2139  67.0  UA      979
##  7  2013     1     3   1950    1845   65.0  2228   2227   1.00 B6       91
##  8  2013     1     3   2015    1915   60.0  2135   2111  24.0  9E     3525
##  9  2013     1     3   2257    2000  177      45   2224 141    9E     3439
## 10  2013     1     4   1917    1700  137    2135   1950 105    AA      575
## # ... with 1,834 more rows, and 8 more variables: tailnum <chr>,
## #   origin <chr>, dest <chr>, air_time <dbl>, distance <dbl>, hour <dbl>,
## #   minute <dbl>, time_hour <dttm>

Departed between midnight and 6am (inclusive)

filter(nycflights, dep_time<600 | dep_time >= 0)

## # A tibble: 328,521 x 19
##     year month   day dep_t~ sched_~ dep_d~ arr_~ sched~ arr_d~ carr~ flig~
##    <int> <int> <int>  <int>   <int>  <dbl> <int>  <int>  <dbl> <chr> <int>
##  1  2013     1     1    517     515   2.00   830    819  11.0  UA     1545
##  2  2013     1     1    533     529   4.00   850    830  20.0  UA     1714
##  3  2013     1     1    542     540   2.00   923    850  33.0  AA     1141
##  4  2013     1     1    544     545  -1.00  1004   1022 -18.0  B6      725
##  5  2013     1     1    554     600  -6.00   812    837 -25.0  DL      461
##  6  2013     1     1    554     558  -4.00   740    728  12.0  UA     1696
##  7  2013     1     1    555     600  -5.00   913    854  19.0  B6      507
##  8  2013     1     1    557     600  -3.00   709    723 -14.0  EV     5708
##  9  2013     1     1    557     600  -3.00   838    846 - 8.00 B6       79
## 10  2013     1     1    558     600  -2.00   753    745   8.00 AA      301
## # ... with 328,511 more rows, and 8 more variables: tailnum <chr>,
## #   origin <chr>, dest <chr>, air_time <dbl>, distance <dbl>, hour <dbl>,
## #   minute <dbl>, time_hour <dttm>

Another useful dplyr filtering helper is between(). What does it do? Can you use it to simplify theccode needed to answer the previous challenges?

filter(nycflights, between(month, 7, 9))

## # A tibble: 86,326 x 19
##     year month   day dep_t~ sched_~ dep_de~ arr_~ sched~ arr_~ carr~ flig~
##    <int> <int> <int>  <int>   <int>   <dbl> <int>  <int> <dbl> <chr> <int>
##  1  2013     7     1      1    2029  212      236   2359   157 B6      915
##  2  2013     7     1      2    2359    3.00   344    344     0 B6     1503
##  3  2013     7     1     29    2245  104      151      1   110 B6      234
##  4  2013     7     1     43    2130  193      322     14   188 B6     1371
##  5  2013     7     1     44    2150  174      300    100   120 AA      185
##  6  2013     7     1     46    2051  235      304   2358   186 B6      165
##  7  2013     7     1     48    2001  287      308   2305   243 VX      415
##  8  2013     7     1     58    2155  183      335     43   172 B6      425
##  9  2013     7     1    100    2146  194      327     30   177 B6     1183
## 10  2013     7     1    100    2245  135      337    135   122 B6      623
## # ... with 86,316 more rows, and 8 more variables: tailnum <chr>,
## #   origin <chr>, dest <chr>, air_time <dbl>, distance <dbl>, hour <dbl>,
## #   minute <dbl>, time_hour <dttm>

filter(nycflights, between(dep_time, 0, 600))

## # A tibble: 9,344 x 19
##     year month   day dep_t~ sched_~ dep_d~ arr_~ sched~ arr_d~ carr~ flig~
##    <int> <int> <int>  <int>   <int>  <dbl> <int>  <int>  <dbl> <chr> <int>
##  1  2013     1     1    517     515   2.00   830    819  11.0  UA     1545
##  2  2013     1     1    533     529   4.00   850    830  20.0  UA     1714
##  3  2013     1     1    542     540   2.00   923    850  33.0  AA     1141
##  4  2013     1     1    544     545  -1.00  1004   1022 -18.0  B6      725
##  5  2013     1     1    554     600  -6.00   812    837 -25.0  DL      461
##  6  2013     1     1    554     558  -4.00   740    728  12.0  UA     1696
##  7  2013     1     1    555     600  -5.00   913    854  19.0  B6      507
##  8  2013     1     1    557     600  -3.00   709    723 -14.0  EV     5708
##  9  2013     1     1    557     600  -3.00   838    846 - 8.00 B6       79
## 10  2013     1     1    558     600  -2.00   753    745   8.00 AA      301
## # ... with 9,334 more rows, and 8 more variables: tailnum <chr>,
## #   origin <chr>, dest <chr>, air_time <dbl>, distance <dbl>, hour <dbl>,
## #   minute <dbl>, time_hour <dttm>

How many flights have a missing dep_time? What other variables are missing? What might these rows represent?

filter(nycflights, is.na(dep_time))

## # A tibble: 8,255 x 19
##     year month   day dep_~ sche~ dep_~ arr_~ sche~ arr_~ carr~ flig~ tail~
##    <int> <int> <int> <int> <int> <dbl> <int> <int> <dbl> <chr> <int> <chr>
##  1  2013     1     1    NA  1630    NA    NA  1815    NA EV     4308 N181~
##  2  2013     1     1    NA  1935    NA    NA  2240    NA AA      791 N3EH~
##  3  2013     1     1    NA  1500    NA    NA  1825    NA AA     1925 N3EV~
##  4  2013     1     1    NA   600    NA    NA   901    NA B6      125 N618~
##  5  2013     1     2    NA  1540    NA    NA  1747    NA EV     4352 N105~
##  6  2013     1     2    NA  1620    NA    NA  1746    NA EV     4406 N139~
##  7  2013     1     2    NA  1355    NA    NA  1459    NA EV     4434 N105~
##  8  2013     1     2    NA  1420    NA    NA  1644    NA EV     4935 N759~
##  9  2013     1     2    NA  1321    NA    NA  1536    NA EV     3849 N135~
## 10  2013     1     2    NA  1545    NA    NA  1910    NA AA      133 <NA> 
## # ... with 8,245 more rows, and 7 more variables: origin <chr>,
## #   dest <chr>, air_time <dbl>, distance <dbl>, hour <dbl>, minute <dbl>,
## #   time_hour <dttm>
…
NA ^ 0 - na to the 0th power is 1.

NA | TRUE - condition is TRUE, the result is TRUE

FALSE & NA - theres no value that satisfies this, but it is recorded as 0 results rather than missing

NA is missing value.so NA * 0 is NA.

1.8 1.7 - 5.3.1

How could you use arrange() to sort all missing values to the start? (Hint: use is.na()).

arrange(nycflights, !is.na(dep_time))

## # A tibble: 336,776 x 19
##     year month   day dep_~ sche~ dep_~ arr_~ sche~ arr_~ carr~ flig~ tail~
##    <int> <int> <int> <int> <int> <dbl> <int> <int> <dbl> <chr> <int> <chr>
##  1  2013     1     1    NA  1630    NA    NA  1815    NA EV     4308 N181~
##  2  2013     1     1    NA  1935    NA    NA  2240    NA AA      791 N3EH~
##  3  2013     1     1    NA  1500    NA    NA  1825    NA AA     1925 N3EV~
##  4  2013     1     1    NA   600    NA    NA   901    NA B6      125 N618~
##  5  2013     1     2    NA  1540    NA    NA  1747    NA EV     4352 N105~
##  6  2013     1     2    NA  1620    NA    NA  1746    NA EV     4406 N139~
##  7  2013     1     2    NA  1355    NA    NA  1459    NA EV     4434 N105~
##  8  2013     1     2    NA  1420    NA    NA  1644    NA EV     4935 N759~
##  9  2013     1     2    NA  1321    NA    NA  1536    NA EV     3849 N135~
## 10  2013     1     2    NA  1545    NA    NA  1910    NA AA      133 <NA> 
## # ... with 336,766 more rows, and 7 more variables: origin <chr>,
## #   dest <chr>, air_time <dbl>, distance <dbl>, hour <dbl>, minute <dbl>,
## #   time_hour <dttm>

Sort flights to find the most delayed flights by arrival time.

arrange(nycflights, desc(arr_delay))

## # A tibble: 336,776 x 19
##     year month   day dep_~ sche~ dep_~ arr_~ sche~ arr_~ carr~ flig~ tail~
##    <int> <int> <int> <int> <int> <dbl> <int> <int> <dbl> <chr> <int> <chr>
##  1  2013     1     9   641   900  1301  1242  1530  1272 HA       51 N384~
##  2  2013     6    15  1432  1935  1137  1607  2120  1127 MQ     3535 N504~
##  3  2013     1    10  1121  1635  1126  1239  1810  1109 MQ     3695 N517~
##  4  2013     9    20  1139  1845  1014  1457  2210  1007 AA      177 N338~
##  5  2013     7    22   845  1600  1005  1044  1815   989 MQ     3075 N665~
##  6  2013     4    10  1100  1900   960  1342  2211   931 DL     2391 N959~
##  7  2013     3    17  2321   810   911   135  1020   915 DL     2119 N927~
##  8  2013     7    22  2257   759   898   121  1026   895 DL     2047 N671~
##  9  2013    12     5   756  1700   896  1058  2020   878 AA      172 N5DM~
## 10  2013     5     3  1133  2055   878  1250  2215   875 MQ     3744 N523~
## # ... with 336,766 more rows, and 7 more variables: origin <chr>,
## #   dest <chr>, air_time <dbl>, distance <dbl>, hour <dbl>, minute <dbl>,
## #   time_hour <dttm>

Find the flights that left earliest relative to their scheduled departure.

arrange(nycflights, dep_delay)

## # A tibble: 336,776 x 19
##     year month   day dep_t~ sched_~ dep_d~ arr_~ sched~ arr_d~ carr~ flig~
##    <int> <int> <int>  <int>   <int>  <dbl> <int>  <int>  <dbl> <chr> <int>
##  1  2013    12     7   2040    2123  -43.0    40   2352  48.0  B6       97
##  2  2013     2     3   2022    2055  -33.0  2240   2338 -58.0  DL     1715
##  3  2013    11    10   1408    1440  -32.0  1549   1559 -10.0  EV     5713
##  4  2013     1    11   1900    1930  -30.0  2233   2243 -10.0  DL     1435
##  5  2013     1    29   1703    1730  -27.0  1947   1957 -10.0  F9      837
##  6  2013     8     9    729     755  -26.0  1002    955   7.00 MQ     3478
##  7  2013    10    23   1907    1932  -25.0  2143   2143   0    EV     4361
##  8  2013     3    30   2030    2055  -25.0  2213   2250 -37.0  MQ     4573
##  9  2013     3     2   1431    1455  -24.0  1601   1631 -30.0  9E     3318
## 10  2013     5     5    934     958  -24.0  1225   1309 -44.0  B6      375
## # ... with 336,766 more rows, and 8 more variables: tailnum <chr>,
## #   origin <chr>, dest <chr>, air_time <dbl>, distance <dbl>, hour <dbl>,
## #   minute <dbl>, time_hour <dttm>
…
